module gitlab.com/tokend/blobs-proxy-svc

go 1.16

require (
	github.com/Masterminds/squirrel v1.5.0
	github.com/alecthomas/kingpin v2.2.6+incompatible
	github.com/alecthomas/template v0.0.0-20190718012654-fb15b899a751 // indirect
	github.com/alecthomas/units v0.0.0-20210208195552-ff826a37aa15 // indirect
	github.com/certifi/gocertifi v0.0.0-20200922220541-2c3bb06c6054 // indirect
	github.com/fatih/structs v1.1.0
	github.com/fsnotify/fsnotify v1.4.9 // indirect
	github.com/getsentry/raven-go v0.2.0 // indirect
	github.com/getsentry/sentry-go v0.10.0 // indirect
	github.com/go-chi/chi v4.1.2+incompatible
	github.com/go-ozzo/ozzo-validation v3.6.0+incompatible
	github.com/gobuffalo/packr/v2 v2.8.1
	github.com/google/jsonapi v1.0.0 // indirect
	github.com/jmoiron/sqlx v1.3.3
	github.com/karrick/godirwalk v1.16.1 // indirect
	github.com/lib/pq v1.10.1 // indirect
	github.com/magiconair/properties v1.8.5 // indirect
	github.com/mitchellh/mapstructure v1.4.1 // indirect
	github.com/nullstyle/go-xdr v0.0.0-20180726165426-f4c839f75077 // indirect
	github.com/pelletier/go-toml v1.9.0 // indirect
	github.com/rubenv/sql-migrate v0.0.0-20210408115534-a32ed26c37ea
	github.com/sirupsen/logrus v1.8.1 // indirect
	github.com/spf13/afero v1.6.0 // indirect
	github.com/spf13/cast v1.3.1 // indirect
	github.com/spf13/jwalterweatherman v1.1.0 // indirect
	github.com/spf13/pflag v1.0.5 // indirect
	github.com/spf13/viper v1.7.1 // indirect
	gitlab.com/distributed_lab/ape v1.5.0
	gitlab.com/distributed_lab/kit v1.8.5
	gitlab.com/distributed_lab/logan v3.8.0+incompatible
	gitlab.com/distributed_lab/lorem v0.2.0 // indirect
	gitlab.com/distributed_lab/urlval v2.2.0+incompatible
	gitlab.com/tokend/go v3.14.0+incompatible
	gitlab.com/tokend/horizon-connector v4.3.0+incompatible
	gitlab.com/tokend/keypair v0.0.0-20190412110653-b9d7e0c8b312
	gitlab.com/tokend/regources v4.9.1+incompatible // indirect
	golang.org/x/crypto v0.0.0-20210421170649-83a5a9bb288b // indirect
	golang.org/x/sys v0.0.0-20210426230700-d19ff857e887 // indirect
	golang.org/x/term v0.0.0-20210422114643-f5beecf764ed // indirect
	golang.org/x/text v0.3.6 // indirect
	gopkg.in/ini.v1 v1.62.0 // indirect
)
